src/TRACE.vcd
$var reg 	1 !	PC.pc_select  $end
$var reg 	8 "	PC.target  $end
$var reg 	5 #	PC.PCr  $end
$var reg 	6 $	PC.pc_out  $end
$var reg 	32 %	IM.odata  $end
$var reg 	6 &	CTRL.opcode  $end
$var reg 	1 '	CTRL.BRANCH  $end
$var reg 	1 (	CTRL.REGwrite  $end
$var reg 	2 )	CTRL.ALUop  $end
$var reg 	16 *	REG.R0  $end
$var reg 	16 +	REG.R1  $end
$var reg 	16 ,	REG.R2  $end
$var reg 	16 -	REG.R3  $end
$var reg 	16 .	REG.R4  $end
$var reg 	16 /	REG.R5  $end
$var reg 	16 0	REG.R6  $end
$var reg 	16 1	REG.R7  $end
$var reg 	5 2	REG.Rr  $end
$var reg 	5 3	REG.Rs  $end
$var reg 	5 4	REG.Rt  $end
$var reg 	5 5	REG.Rt  $end
$var reg 	16 6	ALU.A  $end
$var reg 	16 7	ALU.B  $end
$var reg 	1 8	ALU.NEG  $end
$var reg 	2 9	ALU.ALUop  $end
$var reg 	16 :	ALU.result  $end
$enddefinitions $end 
$enddefinitions $end 
#1
b0 !
b11101100 "
b00000 #
b000001 $
b00000100000000110010110011101100 %
b000001 &
b0 '
b1 (
b01 )
b0000000000000000 *
b0000000000000000 +
b0000000000000000 ,
b0000000000000000 -
b0000000000000000 .
b0000000000000000 /
b0000000000000000 0
b0000000000000000 1
b00000 2
b00011 3
b00101 4
b00101 5
b0000000000000000 6
b0010110011101100 7
b0 8
b01 9
b0010110011101100 :
#2
b0 !
b11010100 "
b00001 #
b000010 $
b00000100000001000011000011010100 %
b000001 &
b0 '
b1 (
b01 )
b0000000000000000 *
b0000000000000000 +
b0000000000000000 ,
b0010110011101100 -
b0000000000000000 .
b0000000000000000 /
b0000000000000000 0
b0000000000000000 1
b00000 2
b00100 3
b00110 4
b00110 5
b0000000000000000 6
b0011000011010100 7
b0 8
b01 9
b0011000011010100 :
#3
b0 !
b11100000 "
b00010 #
b000011 $
b00000100000001010010111011100000 %
b000001 &
b0 '
b1 (
b01 )
b0000000000000000 *
b0000000000000000 +
b0000000000000000 ,
b0010110011101100 -
b0011000011010100 .
b0000000000000000 /
b0000000000000000 0
b0000000000000000 1
b00000 2
b00101 3
b00101 4
b00101 5
b0000000000000000 6
b0010111011100000 7
b0 8
b01 9
b0010111011100000 :
#4
b0 !
b00011110 "
b00011 #
b000100 $
b00000100000000010000000000011110 %
b000001 &
b0 '
b1 (
b01 )
b0000000000000000 *
b0000000000000000 +
b0000000000000000 ,
b0010110011101100 -
b0011000011010100 .
b0010111011100000 /
b0000000000000000 0
b0000000000000000 1
b00000 2
b00001 3
b00000 4
b00000 5
b0000000000000000 6
b0000000000011110 7
b0 8
b01 9
b0000000000011110 :
#5
b0 !
b00000000 "
b00100 #
b000101 $
b00000100000000100000000000000000 %
b000001 &
b0 '
b1 (
b01 )
b0000000000000000 *
b0000000000011110 +
b0000000000000000 ,
b0010110011101100 -
b0011000011010100 .
b0010111011100000 /
b0000000000000000 0
b0000000000000000 1
b00000 2
b00010 3
b00000 4
b00000 5
b0000000000000000 6
b0000000000000000 7
b0 8
b01 9
b0000000000000000 :
#6
b0 !
b00000000 "
b00101 #
b000110 $
b00001000001000110001100000000000 %
b000010 &
b0 '
b1 (
b10 )
b0000000000000000 *
b0000000000011110 +
b0000000000000000 ,
b0010110011101100 -
b0011000011010100 .
b0010111011100000 /
b0000000000000000 0
b0000000000000000 1
b00001 2
b00011 3
b00011 4
b00011 5
b0000000000011110 6
b0010110011101100 7
b0 8
b10 9
b0010110011001110 :
#7
b0 !
b00001001 "
b00110 #
b000111 $
b00010000000000000000000000001001 %
b000100 &
b0 '
b0 (
b11 )
b0000000000000000 *
b0000000000011110 +
b0000000000000000 ,
b0010110011001110 -
b0011000011010100 .
b0010111011100000 /
b0000000000000000 0
b0000000000000000 1
b00000 2
b00000 3
b00000 4
b00000 5
b0000000000000000 6
b0000000000000000 7
b0 8
b11 9
b0000000000000000 :
#8
b0 !
b00000001 "
b00111 #
b001000 $
b00000100010000100000000000000001 %
b000001 &
b0 '
b1 (
b01 )
b0000000000000000 *
b0000000000011110 +
b0000000000000000 ,
b0010110011001110 -
b0011000011010100 .
b0010111011100000 /
b0000000000000000 0
b0000000000000000 1
b00010 2
b00010 3
b00000 4
b00000 5
b0000000000000000 6
b0000000000000001 7
b0 8
b01 9
b0000000000000001 :
#9
b1 !
b00000101 "
b01000 #
b000101 $
b00010100000000000000000000000101 %
b000101 &
b1 '
b0 (
b00 )
b0000000000000000 *
b0000000000011110 +
b0000000000000001 ,
b0010110011001110 -
b0011000011010100 .
b0010111011100000 /
b0000000000000000 0
b0000000000000000 1
b00000 2
b00000 3
b00000 4
b00000 5
b0000000000000000 6
b0000000000000000 7
b0 8
b00 9
b0000000000000000 :
#10
b0 !
b00000000 "
b00101 #
b000110 $
b00001000001000110001100000000000 %
b000010 &
b0 '
b1 (
b10 )
b0000000000000000 *
b0000000000011110 +
b0000000000000001 ,
b0010110011001110 -
b0011000011010100 .
b0010111011100000 /
b0000000000000000 0
b0000000000000000 1
b00001 2
b00011 3
b00011 4
b00011 5
b0000000000011110 6
b0010110011001110 7
b0 8
b10 9
b0010110010110000 :
#11
b0 !
b00001001 "
b00110 #
b000111 $
b00010000000000000000000000001001 %
b000100 &
b0 '
b0 (
b11 )
b0000000000000000 *
b0000000000011110 +
b0000000000000001 ,
b0010110010110000 -
b0011000011010100 .
b0010111011100000 /
b0000000000000000 0
b0000000000000000 1
b00000 2
b00000 3
b00000 4
b00000 5
b0000000000000000 6
b0000000000000000 7
b0 8
b11 9
b0000000000000000 :
#12
b0 !
b00000001 "
b00111 #
b001000 $
b00000100010000100000000000000001 %
b000001 &
b0 '
b1 (
b01 )
b0000000000000000 *
b0000000000011110 +
b0000000000000001 ,
b0010110010110000 -
b0011000011010100 .
b0010111011100000 /
b0000000000000000 0
b0000000000000000 1
b00010 2
b00010 3
b00000 4
b00000 5
b0000000000000001 6
b0000000000000001 7
b0 8
b01 9
b0000000000000010 :
#13
b1 !
b00000101 "
b01000 #
b000101 $
b00010100000000000000000000000101 %
b000101 &
b1 '
b0 (
b00 )
b0000000000000000 *
b0000000000011110 +
b0000000000000010 ,
b0010110010110000 -
b0011000011010100 .
b0010111011100000 /
b0000000000000000 0
b0000000000000000 1
b00000 2
b00000 3
b00000 4
b00000 5
b0000000000000000 6
b0000000000000000 7
b0 8
b00 9
b0000000000000000 :
#14
b0 !
b00000000 "
b00101 #
b000110 $
b00001000001000110001100000000000 %
b000010 &
b0 '
b1 (
b10 )
b0000000000000000 *
b0000000000011110 +
b0000000000000010 ,
b0010110010110000 -
b0011000011010100 .
b0010111011100000 /
b0000000000000000 0
b0000000000000000 1
b00001 2
b00011 3
b00011 4
b00011 5
b0000000000011110 6
b0010110010110000 7
b0 8
b10 9
b0010110010010010 :
#15
b0 !
b00001001 "
b00110 #
b000111 $
b00010000000000000000000000001001 %
b000100 &
b0 '
b0 (
b11 )
b0000000000000000 *
b0000000000011110 +
b0000000000000010 ,
b0010110010010010 -
b0011000011010100 .
b0010111011100000 /
b0000000000000000 0
b0000000000000000 1
b00000 2
b00000 3
b00000 4
b00000 5
b0000000000000000 6
b0000000000000000 7
b0 8
b11 9
b0000000000000000 :
#16
b0 !
b00000001 "
b00111 #
b001000 $
b00000100010000100000000000000001 %
b000001 &
b0 '
b1 (
b01 )
b0000000000000000 *
b0000000000011110 +
b0000000000000010 ,
b0010110010010010 -
b0011000011010100 .
b0010111011100000 /
b0000000000000000 0
b0000000000000000 1
b00010 2
b00010 3
b00000 4
b00000 5
b0000000000000010 6
b0000000000000001 7
b0 8
b01 9
b0000000000000011 :
#17
b1 !
b00000101 "
b01000 #
b000101 $
b00010100000000000000000000000101 %
b000101 &
b1 '
b0 (
b00 )
b0000000000000000 *
b0000000000011110 +
b0000000000000011 ,
b0010110010010010 -
b0011000011010100 .
b0010111011100000 /
b0000000000000000 0
b0000000000000000 1
b00000 2
b00000 3
b00000 4
b00000 5
b0000000000000000 6
b0000000000000000 7
b0 8
b00 9
b0000000000000000 :
#18
b0 !
b00000000 "
b00101 #
b000110 $
b00001000001000110001100000000000 %
b000010 &
b0 '
b1 (
b10 )
b0000000000000000 *
b0000000000011110 +
b0000000000000011 ,
b0010110010010010 -
b0011000011010100 .
b0010111011100000 /
b0000000000000000 0
b0000000000000000 1
b00001 2
b00011 3
b00011 4
b00011 5
b0000000000011110 6
b0010110010010010 7
b0 8
b10 9
b0010110001110100 :
#19
b0 !
b00001001 "
b00110 #
b000111 $
b00010000000000000000000000001001 %
b000100 &
b0 '
b0 (
b11 )
b0000000000000000 *
b0000000000011110 +
b0000000000000011 ,
b0010110001110100 -
b0011000011010100 .
b0010111011100000 /
b0000000000000000 0
b0000000000000000 1
b00000 2
b00000 3
b00000 4
b00000 5
b0000000000000000 6
b0000000000000000 7
b0 8
b11 9
b0000000000000000 :
#20
b0 !
b00000001 "
b00111 #
b001000 $
b00000100010000100000000000000001 %
b000001 &
b0 '
b1 (
b01 )
b0000000000000000 *
b0000000000011110 +
b0000000000000011 ,
b0010110001110100 -
b0011000011010100 .
b0010111011100000 /
b0000000000000000 0
b0000000000000000 1
b00010 2
b00010 3
b00000 4
b00000 5
b0000000000000011 6
b0000000000000001 7
b0 8
b01 9
b0000000000000100 :
#21
b1 !
b00000101 "
b01000 #
b000101 $
b00010100000000000000000000000101 %
b000101 &
b1 '
b0 (
b00 )
b0000000000000000 *
b0000000000011110 +
b0000000000000100 ,
b0010110001110100 -
b0011000011010100 .
b0010111011100000 /
b0000000000000000 0
b0000000000000000 1
b00000 2
b00000 3
b00000 4
b00000 5
b0000000000000000 6
b0000000000000000 7
b0 8
b00 9
b0000000000000000 :
#22
b0 !
b00000000 "
b00101 #
b000110 $
b00001000001000110001100000000000 %
b000010 &
b0 '
b1 (
b10 )
b0000000000000000 *
b0000000000011110 +
b0000000000000100 ,
b0010110001110100 -
b0011000011010100 .
b0010111011100000 /
b0000000000000000 0
b0000000000000000 1
b00001 2
b00011 3
b00011 4
b00011 5
b0000000000011110 6
b0010110001110100 7
b0 8
b10 9
b0010110001010110 :
#23
b0 !
b00001001 "
b00110 #
b000111 $
b00010000000000000000000000001001 %
b000100 &
b0 '
b0 (
b11 )
b0000000000000000 *
b0000000000011110 +
b0000000000000100 ,
b0010110001010110 -
b0011000011010100 .
b0010111011100000 /
b0000000000000000 0
b0000000000000000 1
b00000 2
b00000 3
b00000 4
b00000 5
b0000000000000000 6
b0000000000000000 7
b0 8
b11 9
b0000000000000000 :
#24
b0 !
b00000001 "
b00111 #
b001000 $
b00000100010000100000000000000001 %
b000001 &
b0 '
b1 (
b01 )
b0000000000000000 *
b0000000000011110 +
b0000000000000100 ,
b0010110001010110 -
b0011000011010100 .
b0010111011100000 /
b0000000000000000 0
b0000000000000000 1
b00010 2
b00010 3
b00000 4
b00000 5
b0000000000000100 6
b0000000000000001 7
b0 8
b01 9
b0000000000000101 :
#25
b1 !
b00000101 "
b01000 #
b000101 $
b00010100000000000000000000000101 %
b000101 &
b1 '
b0 (
b00 )
b0000000000000000 *
b0000000000011110 +
b0000000000000101 ,
b0010110001010110 -
b0011000011010100 .
b0010111011100000 /
b0000000000000000 0
b0000000000000000 1
b00000 2
b00000 3
b00000 4
b00000 5
b0000000000000000 6
b0000000000000000 7
b0 8
b00 9
b0000000000000000 :
#26
b0 !
b00000000 "
b00101 #
b000110 $
b00001000001000110001100000000000 %
b000010 &
b0 '
b1 (
b10 )
b0000000000000000 *
b0000000000011110 +
b0000000000000101 ,
b0010110001010110 -
b0011000011010100 .
b0010111011100000 /
b0000000000000000 0
b0000000000000000 1
b00001 2
b00011 3
b00011 4
b00011 5
b0000000000011110 6
b0010110001010110 7
b0 8
b10 9
b0010110000111000 :
#27
b0 !
b00001001 "
b00110 #
b000111 $
b00010000000000000000000000001001 %
b000100 &
b0 '
b0 (
b11 )
b0000000000000000 *
b0000000000011110 +
b0000000000000101 ,
b0010110000111000 -
b0011000011010100 .
b0010111011100000 /
b0000000000000000 0
b0000000000000000 1
b00000 2
b00000 3
b00000 4
b00000 5
b0000000000000000 6
b0000000000000000 7
b0 8
b11 9
b0000000000000000 :
#28
b0 !
b00000001 "
b00111 #
b001000 $
b00000100010000100000000000000001 %
b000001 &
b0 '
b1 (
b01 )
b0000000000000000 *
b0000000000011110 +
b0000000000000101 ,
b0010110000111000 -
b0011000011010100 .
b0010111011100000 /
b0000000000000000 0
b0000000000000000 1
b00010 2
b00010 3
b00000 4
b00000 5
b0000000000000101 6
b0000000000000001 7
b0 8
b01 9
b0000000000000110 :
#29
b1 !
b00000101 "
b01000 #
b000101 $
b00010100000000000000000000000101 %
b000101 &
b1 '
b0 (
b00 )
b0000000000000000 *
b0000000000011110 +
b0000000000000110 ,
b0010110000111000 -
b0011000011010100 .
b0010111011100000 /
b0000000000000000 0
b0000000000000000 1
b00000 2
b00000 3
b00000 4
b00000 5
b0000000000000000 6
b0000000000000000 7
b0 8
b00 9
b0000000000000000 :
#30
b0 !
b00000000 "
b00101 #
b000110 $
b00001000001000110001100000000000 %
b000010 &
b0 '
b1 (
b10 )
b0000000000000000 *
b0000000000011110 +
b0000000000000110 ,
b0010110000111000 -
b0011000011010100 .
b0010111011100000 /
b0000000000000000 0
b0000000000000000 1
b00001 2
b00011 3
b00011 4
b00011 5
b0000000000011110 6
b0010110000111000 7
b0 8
b10 9
b0010110000011010 :
#31
b0 !
b00001001 "
b00110 #
b000111 $
b00010000000000000000000000001001 %
b000100 &
b0 '
b0 (
b11 )
b0000000000000000 *
b0000000000011110 +
b0000000000000110 ,
b0010110000011010 -
b0011000011010100 .
b0010111011100000 /
b0000000000000000 0
b0000000000000000 1
b00000 2
b00000 3
b00000 4
b00000 5
b0000000000000000 6
b0000000000000000 7
b0 8
b11 9
b0000000000000000 :
#32
b0 !
b00000001 "
b00111 #
b001000 $
b00000100010000100000000000000001 %
b000001 &
b0 '
b1 (
b01 )
b0000000000000000 *
b0000000000011110 +
b0000000000000110 ,
b0010110000011010 -
b0011000011010100 .
b0010111011100000 /
b0000000000000000 0
b0000000000000000 1
b00010 2
b00010 3
b00000 4
b00000 5
b0000000000000110 6
b0000000000000001 7
b0 8
b01 9
b0000000000000111 :
#33
b1 !
b00000101 "
b01000 #
b000101 $
b00010100000000000000000000000101 %
b000101 &
b1 '
b0 (
b00 )
b0000000000000000 *
b0000000000011110 +
b0000000000000111 ,
b0010110000011010 -
b0011000011010100 .
b0010111011100000 /
b0000000000000000 0
b0000000000000000 1
b00000 2
b00000 3
b00000 4
b00000 5
b0000000000000000 6
b0000000000000000 7
b0 8
b00 9
b0000000000000000 :
#34
b0 !
b00000000 "
b00101 #
b000110 $
b00001000001000110001100000000000 %
b000010 &
b0 '
b1 (
b10 )
b0000000000000000 *
b0000000000011110 +
b0000000000000111 ,
b0010110000011010 -
b0011000011010100 .
b0010111011100000 /
b0000000000000000 0
b0000000000000000 1
b00001 2
b00011 3
b00011 4
b00011 5
b0000000000011110 6
b0010110000011010 7
b0 8
b10 9
b0010101111111100 :
#35
b0 !
b00001001 "
b00110 #
b000111 $
b00010000000000000000000000001001 %
b000100 &
b0 '
b0 (
b11 )
b0000000000000000 *
b0000000000011110 +
b0000000000000111 ,
b0010101111111100 -
b0011000011010100 .
b0010111011100000 /
b0000000000000000 0
b0000000000000000 1
b00000 2
b00000 3
b00000 4
b00000 5
b0000000000000000 6
b0000000000000000 7
b0 8
b11 9
b0000000000000000 :
#36
b0 !
b00000001 "
b00111 #
b001000 $
b00000100010000100000000000000001 %
b000001 &
b0 '
b1 (
b01 )
b0000000000000000 *
b0000000000011110 +
b0000000000000111 ,
b0010101111111100 -
b0011000011010100 .
b0010111011100000 /
b0000000000000000 0
b0000000000000000 1
b00010 2
b00010 3
b00000 4
b00000 5
b0000000000000111 6
b0000000000000001 7
b0 8
b01 9
b0000000000001000 :
#37
b1 !
b00000101 "
b01000 #
b000101 $
b00010100000000000000000000000101 %
b000101 &
b1 '
b0 (
b00 )
b0000000000000000 *
b0000000000011110 +
b0000000000001000 ,
b0010101111111100 -
b0011000011010100 .
b0010111011100000 /
b0000000000000000 0
b0000000000000000 1
b00000 2
b00000 3
b00000 4
b00000 5
b0000000000000000 6
b0000000000000000 7
b0 8
b00 9
b0000000000000000 :
#38
b0 !
b00000000 "
b00101 #
b000110 $
b00001000001000110001100000000000 %
b000010 &
b0 '
b1 (
b10 )
b0000000000000000 *
b0000000000011110 +
b0000000000001000 ,
b0010101111111100 -
b0011000011010100 .
b0010111011100000 /
b0000000000000000 0
b0000000000000000 1
b00001 2
b00011 3
b00011 4
b00011 5
b0000000000011110 6
b0010101111111100 7
b0 8
b10 9
b0010101111011110 :
#39
b0 !
b00001001 "
b00110 #
b000111 $
b00010000000000000000000000001001 %
b000100 &
b0 '
b0 (
b11 )
b0000000000000000 *
b0000000000011110 +
b0000000000001000 ,
b0010101111011110 -
b0011000011010100 .
b0010111011100000 /
b0000000000000000 0
b0000000000000000 1
b00000 2
b00000 3
b00000 4
b00000 5
b0000000000000000 6
b0000000000000000 7
b0 8
b11 9
b0000000000000000 :
#40
b0 !
b00000001 "
b00111 #
b001000 $
b00000100010000100000000000000001 %
b000001 &
b0 '
b1 (
b01 )
b0000000000000000 *
b0000000000011110 +
b0000000000001000 ,
b0010101111011110 -
b0011000011010100 .
b0010111011100000 /
b0000000000000000 0
b0000000000000000 1
b00010 2
b00010 3
b00000 4
b00000 5
b0000000000001000 6
b0000000000000001 7
b0 8
b01 9
b0000000000001001 :
#41
b1 !
b00000101 "
b01000 #
b000101 $
b00010100000000000000000000000101 %
b000101 &
b1 '
b0 (
b00 )
b0000000000000000 *
b0000000000011110 +
b0000000000001001 ,
b0010101111011110 -
b0011000011010100 .
b0010111011100000 /
b0000000000000000 0
b0000000000000000 1
b00000 2
b00000 3
b00000 4
b00000 5
b0000000000000000 6
b0000000000000000 7
b0 8
b00 9
b0000000000000000 :
#42
b0 !
b00000000 "
b00101 #
b000110 $
b00001000001000110001100000000000 %
b000010 &
b0 '
b1 (
b10 )
b0000000000000000 *
b0000000000011110 +
b0000000000001001 ,
b0010101111011110 -
b0011000011010100 .
b0010111011100000 /
b0000000000000000 0
b0000000000000000 1
b00001 2
b00011 3
b00011 4
b00011 5
b0000000000011110 6
b0010101111011110 7
b0 8
b10 9
b0010101111000000 :
#43
b0 !
b00001001 "
b00110 #
b000111 $
b00010000000000000000000000001001 %
b000100 &
b0 '
b0 (
b11 )
b0000000000000000 *
b0000000000011110 +
b0000000000001001 ,
b0010101111000000 -
b0011000011010100 .
b0010111011100000 /
b0000000000000000 0
b0000000000000000 1
b00000 2
b00000 3
b00000 4
b00000 5
b0000000000000000 6
b0000000000000000 7
b0 8
b11 9
b0000000000000000 :
#44
b0 !
b00000001 "
b00111 #
b001000 $
b00000100010000100000000000000001 %
b000001 &
b0 '
b1 (
b01 )
b0000000000000000 *
b0000000000011110 +
b0000000000001001 ,
b0010101111000000 -
b0011000011010100 .
b0010111011100000 /
b0000000000000000 0
b0000000000000000 1
b00010 2
b00010 3
b00000 4
b00000 5
b0000000000001001 6
b0000000000000001 7
b0 8
b01 9
b0000000000001010 :
#45
b1 !
b00000101 "
b01000 #
b000101 $
b00010100000000000000000000000101 %
b000101 &
b1 '
b0 (
b00 )
b0000000000000000 *
b0000000000011110 +
b0000000000001010 ,
b0010101111000000 -
b0011000011010100 .
b0010111011100000 /
b0000000000000000 0
b0000000000000000 1
b00000 2
b00000 3
b00000 4
b00000 5
b0000000000000000 6
b0000000000000000 7
b0 8
b00 9
b0000000000000000 :
#46
b0 !
b00000000 "
b00101 #
b000110 $
b00001000001000110001100000000000 %
b000010 &
b0 '
b1 (
b10 )
b0000000000000000 *
b0000000000011110 +
b0000000000001010 ,
b0010101111000000 -
b0011000011010100 .
b0010111011100000 /
b0000000000000000 0
b0000000000000000 1
b00001 2
b00011 3
b00011 4
b00011 5
b0000000000011110 6
b0010101111000000 7
b0 8
b10 9
b0010101110100010 :
#47
b0 !
b00001001 "
b00110 #
b000111 $
b00010000000000000000000000001001 %
b000100 &
b0 '
b0 (
b11 )
b0000000000000000 *
b0000000000011110 +
b0000000000001010 ,
b0010101110100010 -
b0011000011010100 .
b0010111011100000 /
b0000000000000000 0
b0000000000000000 1
b00000 2
b00000 3
b00000 4
b00000 5
b0000000000000000 6
b0000000000000000 7
b0 8
b11 9
b0000000000000000 :
#48
b0 !
b00000001 "
b00111 #
b001000 $
b00000100010000100000000000000001 %
b000001 &
b0 '
b1 (
b01 )
b0000000000000000 *
b0000000000011110 +
b0000000000001010 ,
b0010101110100010 -
b0011000011010100 .
b0010111011100000 /
b0000000000000000 0
b0000000000000000 1
b00010 2
b00010 3
b00000 4
b00000 5
b0000000000001010 6
b0000000000000001 7
b0 8
b01 9
b0000000000001011 :
#49
b1 !
b00000101 "
b01000 #
b000101 $
b00010100000000000000000000000101 %
b000101 &
b1 '
b0 (
b00 )
b0000000000000000 *
b0000000000011110 +
b0000000000001011 ,
b0010101110100010 -
b0011000011010100 .
b0010111011100000 /
b0000000000000000 0
b0000000000000000 1
b00000 2
b00000 3
b00000 4
b00000 5
b0000000000000000 6
b0000000000000000 7
b0 8
b00 9
b0000000000000000 :
#50
b0 !
b00000000 "
b00101 #
b000110 $
b00001000001000110001100000000000 %
b000010 &
b0 '
b1 (
b10 )
b0000000000000000 *
b0000000000011110 +
b0000000000001011 ,
b0010101110100010 -
b0011000011010100 .
b0010111011100000 /
b0000000000000000 0
b0000000000000000 1
b00001 2
b00011 3
b00011 4
b00011 5
b0000000000011110 6
b0010101110100010 7
b0 8
b10 9
b0010101110000100 :
#51
b0 !
b00001001 "
b00110 #
b000111 $
b00010000000000000000000000001001 %
b000100 &
b0 '
b0 (
b11 )
b0000000000000000 *
b0000000000011110 +
b0000000000001011 ,
b0010101110000100 -
b0011000011010100 .
b0010111011100000 /
b0000000000000000 0
b0000000000000000 1
b00000 2
b00000 3
b00000 4
b00000 5
b0000000000000000 6
b0000000000000000 7
b0 8
b11 9
b0000000000000000 :
#52
b0 !
b00000001 "
b00111 #
b001000 $
b00000100010000100000000000000001 %
b000001 &
b0 '
b1 (
b01 )
b0000000000000000 *
b0000000000011110 +
b0000000000001011 ,
b0010101110000100 -
b0011000011010100 .
b0010111011100000 /
b0000000000000000 0
b0000000000000000 1
b00010 2
b00010 3
b00000 4
b00000 5
b0000000000001011 6
b0000000000000001 7
b0 8
b01 9
b0000000000001100 :
#53
b1 !
b00000101 "
b01000 #
b000101 $
b00010100000000000000000000000101 %
b000101 &
b1 '
b0 (
b00 )
b0000000000000000 *
b0000000000011110 +
b0000000000001100 ,
b0010101110000100 -
b0011000011010100 .
b0010111011100000 /
b0000000000000000 0
b0000000000000000 1
b00000 2
b00000 3
b00000 4
b00000 5
b0000000000000000 6
b0000000000000000 7
b0 8
b00 9
b0000000000000000 :
#54
b0 !
b00000000 "
b00101 #
b000110 $
b00001000001000110001100000000000 %
b000010 &
b0 '
b1 (
b10 )
b0000000000000000 *
b0000000000011110 +
b0000000000001100 ,
b0010101110000100 -
b0011000011010100 .
b0010111011100000 /
b0000000000000000 0
b0000000000000000 1
b00001 2
b00011 3
b00011 4
b00011 5
b0000000000011110 6
b0010101110000100 7
b0 8
b10 9
b0010101101100110 :
#55
b0 !
b00001001 "
b00110 #
b000111 $
b00010000000000000000000000001001 %
b000100 &
b0 '
b0 (
b11 )
b0000000000000000 *
b0000000000011110 +
b0000000000001100 ,
b0010101101100110 -
b0011000011010100 .
b0010111011100000 /
b0000000000000000 0
b0000000000000000 1
b00000 2
b00000 3
b00000 4
b00000 5
b0000000000000000 6
b0000000000000000 7
b0 8
b11 9
b0000000000000000 :
#56
b0 !
b00000001 "
b00111 #
b001000 $
b00000100010000100000000000000001 %
b000001 &
b0 '
b1 (
b01 )
b0000000000000000 *
b0000000000011110 +
b0000000000001100 ,
b0010101101100110 -
b0011000011010100 .
b0010111011100000 /
b0000000000000000 0
b0000000000000000 1
b00010 2
b00010 3
b00000 4
b00000 5
b0000000000001100 6
b0000000000000001 7
b0 8
b01 9
b0000000000001101 :
#57
b1 !
b00000101 "
b01000 #
b000101 $
b00010100000000000000000000000101 %
b000101 &
b1 '
b0 (
b00 )
b0000000000000000 *
b0000000000011110 +
b0000000000001101 ,
b0010101101100110 -
b0011000011010100 .
b0010111011100000 /
b0000000000000000 0
b0000000000000000 1
b00000 2
b00000 3
b00000 4
b00000 5
b0000000000000000 6
b0000000000000000 7
b0 8
b00 9
b0000000000000000 :
#58
b0 !
b00000000 "
b00101 #
b000110 $
b00001000001000110001100000000000 %
b000010 &
b0 '
b1 (
b10 )
b0000000000000000 *
b0000000000011110 +
b0000000000001101 ,
b0010101101100110 -
b0011000011010100 .
b0010111011100000 /
b0000000000000000 0
b0000000000000000 1
b00001 2
b00011 3
b00011 4
b00011 5
b0000000000011110 6
b0010101101100110 7
b0 8
b10 9
b0010101101001000 :
#59
b0 !
b00001001 "
b00110 #
b000111 $
b00010000000000000000000000001001 %
b000100 &
b0 '
b0 (
b11 )
b0000000000000000 *
b0000000000011110 +
b0000000000001101 ,
b0010101101001000 -
b0011000011010100 .
b0010111011100000 /
b0000000000000000 0
b0000000000000000 1
b00000 2
b00000 3
b00000 4
b00000 5
b0000000000000000 6
b0000000000000000 7
b0 8
b11 9
b0000000000000000 :
#60
b0 !
b00000001 "
b00111 #
b001000 $
b00000100010000100000000000000001 %
b000001 &
b0 '
b1 (
b01 )
b0000000000000000 *
b0000000000011110 +
b0000000000001101 ,
b0010101101001000 -
b0011000011010100 .
b0010111011100000 /
b0000000000000000 0
b0000000000000000 1
b00010 2
b00010 3
b00000 4
b00000 5
b0000000000001101 6
b0000000000000001 7
b0 8
b01 9
b0000000000001110 :
#61
b1 !
b00000101 "
b01000 #
b000101 $
b00010100000000000000000000000101 %
b000101 &
b1 '
b0 (
b00 )
b0000000000000000 *
b0000000000011110 +
b0000000000001110 ,
b0010101101001000 -
b0011000011010100 .
b0010111011100000 /
b0000000000000000 0
b0000000000000000 1
b00000 2
b00000 3
b00000 4
b00000 5
b0000000000000000 6
b0000000000000000 7
b0 8
b00 9
b0000000000000000 :
#62
b0 !
b00000000 "
b00101 #
b000110 $
b00001000001000110001100000000000 %
b000010 &
b0 '
b1 (
b10 )
b0000000000000000 *
b0000000000011110 +
b0000000000001110 ,
b0010101101001000 -
b0011000011010100 .
b0010111011100000 /
b0000000000000000 0
b0000000000000000 1
b00001 2
b00011 3
b00011 4
b00011 5
b0000000000011110 6
b0010101101001000 7
b0 8
b10 9
b0010101100101010 :
#63
b0 !
b00001001 "
b00110 #
b000111 $
b00010000000000000000000000001001 %
b000100 &
b0 '
b0 (
b11 )
b0000000000000000 *
b0000000000011110 +
b0000000000001110 ,
b0010101100101010 -
b0011000011010100 .
b0010111011100000 /
b0000000000000000 0
b0000000000000000 1
b00000 2
b00000 3
b00000 4
b00000 5
b0000000000000000 6
b0000000000000000 7
b0 8
b11 9
b0000000000000000 :
#64
b0 !
b00000001 "
b00111 #
b001000 $
b00000100010000100000000000000001 %
b000001 &
b0 '
b1 (
b01 )
b0000000000000000 *
b0000000000011110 +
b0000000000001110 ,
b0010101100101010 -
b0011000011010100 .
b0010111011100000 /
b0000000000000000 0
b0000000000000000 1
b00010 2
b00010 3
b00000 4
b00000 5
b0000000000001110 6
b0000000000000001 7
b0 8
b01 9
b0000000000001111 :
#65
b1 !
b00000101 "
b01000 #
b000101 $
b00010100000000000000000000000101 %
b000101 &
b1 '
b0 (
b00 )
b0000000000000000 *
b0000000000011110 +
b0000000000001111 ,
b0010101100101010 -
b0011000011010100 .
b0010111011100000 /
b0000000000000000 0
b0000000000000000 1
b00000 2
b00000 3
b00000 4
b00000 5
b0000000000000000 6
b0000000000000000 7
b0 8
b00 9
b0000000000000000 :
#66
b0 !
b00000000 "
b00101 #
b000110 $
b00001000001000110001100000000000 %
b000010 &
b0 '
b1 (
b10 )
b0000000000000000 *
b0000000000011110 +
b0000000000001111 ,
b0010101100101010 -
b0011000011010100 .
b0010111011100000 /
b0000000000000000 0
b0000000000000000 1
b00001 2
b00011 3
b00011 4
b00011 5
b0000000000011110 6
b0010101100101010 7
b0 8
b10 9
b0010101100001100 :
#67
b0 !
b00001001 "
b00110 #
b000111 $
b00010000000000000000000000001001 %
b000100 &
b0 '
b0 (
b11 )
b0000000000000000 *
b0000000000011110 +
b0000000000001111 ,
b0010101100001100 -
b0011000011010100 .
b0010111011100000 /
b0000000000000000 0
b0000000000000000 1
b00000 2
b00000 3
b00000 4
b00000 5
b0000000000000000 6
b0000000000000000 7
b0 8
b11 9
b0000000000000000 :
#68
b0 !
b00000001 "
b00111 #
b001000 $
b00000100010000100000000000000001 %
b000001 &
b0 '
b1 (
b01 )
b0000000000000000 *
b0000000000011110 +
b0000000000001111 ,
b0010101100001100 -
b0011000011010100 .
b0010111011100000 /
b0000000000000000 0
b0000000000000000 1
b00010 2
b00010 3
b00000 4
b00000 5
b0000000000001111 6
b0000000000000001 7
b0 8
b01 9
b0000000000010000 :
#69
b1 !
b00000101 "
b01000 #
b000101 $
b00010100000000000000000000000101 %
b000101 &
b1 '
b0 (
b00 )
b0000000000000000 *
b0000000000011110 +
b0000000000010000 ,
b0010101100001100 -
b0011000011010100 .
b0010111011100000 /
b0000000000000000 0
b0000000000000000 1
b00000 2
b00000 3
b00000 4
b00000 5
b0000000000000000 6
b0000000000000000 7
b0 8
b00 9
b0000000000000000 :
